{
    "settings": {
      "i18n": {
        "el": {
            "Cancel reason": "Αιτία ακύρωσης δικαιώματος",
            "The reason for cancellation will be applied to all selected students": "Η αιτία ακύρωσης θα εφαρμοστεί σε όλους τους επιλεγμένους φοιτητές"
        }
      }
    },
    "components": [
      {
        "type": "fieldset",
        "components": [
          {
            "columns": [
              {
                "components": [
                  {
                    "label": "Cancel reason",
                    "mask": false,
                    "tableView": false,
                    "delimiter": false,
                    "requireDecimal": false,
                    "inputFormat": "plain",
                    "key": "cancelReason",
                    "type": "textfield",
                    "inputType" : "text",
                    "input": true,
                    "validate": {
                        "required": true,
                        "customMessage": "Required Field"
                    },
                    "clearOnHide" : true, 
                    "description":"The reason for cancellation will be applied to all selected students"
                  }
                ],
                "width": 8
              }
            ],
            "customClass": "text-dark",
            "hideLabel": true,
            "type": "columns",
            "input": false
          }
        ]
      }
    ],
    "width": 3
  }
  