{
    "model": "DiningRequestAction",
    "settings": {
        "i18n": {
            "el": {
                "Yes": "Ναι",
                "No": "Όχι",
                "Prerequisites": "Προϋποθέσεις Σίτισης",
                "Military Active": "Είσαι στρατευμένος;",
                "Are you a student of a Military School?": "Φοιτάς σε στρατιωτική σχολή;",
                "Do you already live in a Student House?": "Διαμένεις σε φοιτητική εστία;",
                "Do you hold same degree with your current one in the university?": "Κατέχεις ήδη πτυχίο του ιδίου κύκλου σπουδών με τον τρέχοντα κύκλο σπουδών σου στο πανεπιστήμιο;",
                "Τo the special category belong": "Στην ειδική κατηγορία ανήκει",
                "All the information I sumbit in the application - statement is true.": "Όλα τα στοιχεία που αναφέρω στην αίτηση - δήλωση είναι αληθή.",
                "The submission of an untrue or inaccurate statement, fake or forged supporting documents is subject to the consequences of the law (Common Ministerial Decision: Νο. 5 par. 1e, Greek Government Gazette B of 1965/18-6-2012).": "​Η υποβολή αναληθούς δήλωσης ή ανακριβών, ψευδών ή πλαστών δικαιολογητικών υπόκειται στις συνέπειες του νόμου (Σίτιση Φοιτητών ΚΥΑ: Αρ. 5 παρ. 1ε, ΦΕΚ Β' 1965/18-6-2012).",
                "An application to get free access to Dining Services must be submitted by students each year. Erasmus student applications are automatically approved. All others will need to submit up-to-date financial status and other certificates for approval according to the Ministerial Decree Φ.5/65835/Β3/18.06.2012.": "Η αίτηση για δωρεάν σίτιση σε κάθε νέο ακαδημαϊκό έτος καθώς και όλα τα απαραίτητα, ενημερωμένα δικαιολογητικά υποβάλλονται ηλεκτρονικά σύμφωνα με τη Κοινή Υπουργική Απόφαση: Φ.5/65835/Β3/18.06.2012.",
                "CAUTION! According to your registration information you may NOT be entitled to free dining.": "ΠΡΟΣΟΧΗ! Σύμφωνα με τα στοιχεία εγγραφής σας είναι πιθανόν να μην δικαιούστε δωρεάν σίτιση και η αίτηση σας μπορεί να απορριφθεί.",
                "Self": "Ο ίδιος",
                "Relatives (e.g parents, siblings, spouse or children)": "Συγγενικό πρόσωπο (πχ οι γονείς, οι αδελφοί και οι σύζυγοι ή συμβίοι, τέκνα)",
                "Select dining request category": "Επέλεξε την κατηγορία που ανήκεις"
            }
        }
    },
    "components": [
        {
            "title": "Dining Notes",
            "collapsible": false,
            "key": "diningNotes",
            "type": "panel",
            "hideLabel": true,
            "label": "diningNotes",
            "customClass": "dining-panel-wrapper",
            "input": false,
            "components": [
                {
                    "label": "HTML",
                    "attrs": [
                        {
                            "attr": "",
                            "value": ""
                        }
                    ],
                    "content": "<b>{{ instance.t('An application to get free access to Dining Services must be submitted by students each year. Erasmus student applications are automatically approved. All others will need to submit up-to-date financial status and other certificates for approval according to the Ministerial Decree Φ.5/65835/Β3/18.06.2012.') }}</b>",
                    "refreshOnChange": false,
                    "key": "html",
                    "type": "htmlelement",
                    "input": false,
                    "tableView": false
                },
                {
                    "label": "HTML",
                    "attrs": [
                        {
                            "attr": "",
                            "value": ""
                        }
                    ],
                    "content": "<span style='color:red;'><b>{{ instance.t('CAUTION! According to your registration information you may NOT be entitled to free dining.') }}</b></span>",
                    "refreshOnChange": false,
                    "key": "html",
                    "type": "htmlelement",
                    "input": false,
                    "tableView": false,
                    "conditional": {
                        "json": {
                            "and": [
                                {
                                    "===": [
                                        {
                                            "var": "data.maxTimeLimit"
                                        },
                                        true
                                    ]
                                }
                            ]
                        }
                    }
                }
            ]
        },
        {
            "title": "Category",
            "collapsible": false,
            "key": "diningCategories",
            "type": "panel",
            "label": "diningCategory",
            "customClass": "dining-panel-wrapper",
            "input": false,
            "components": [
                {
                    "input": false,
                    "tableView": false,
                    "key": "studentDiningCategory",
                    "clearOnHide": true,
                    "columns": [
                        {
                            "components": [
                                {
                                    "label": "Select dining request category",
                                    "hideLabel": true,
                                    "widget": "choicesjs",
                                    "dataSrc": "url",
                                    "data": {
                                        "url": "DiningRequestCategories",
                                        "headers": []
                                    },
                                    "template": "{{ item.name }}",
                                    "key": "category",
                                    "type": "select",
                                    "dataType": "object",
                                    "idPath": "id",
                                    "selectValues": "value",
                                    "clearOnHide": true,
                                    "input": true,
                                    "disabled": true
                                }
                            ],
                            "width": 12,
                            "offset": 0,
                            "push": 0,
                            "pull": 0
                        }
                    ],
                    "type": "columns",
                    "hideLabel": true
                }
            ]
        }
    ]
}