{
    "model": "DiningRequestAction",
    "settings": {
        "i18n": {
            "el": {
                "Yes": "Ναι",
                "No": "Όχι",
                "Prerequisites": "Προϋποθέσεις Σίτισης",
                "Next": "Επόμενο",
                "According to your registration information you are registered as a guest student at A.E.I. of the country, who come from similar Institutions abroad in the context of educational or research cooperation programs - (ERASMUS) and you are entitled to free dining.": "Σύμφωνα με τα στοιχεία εγγραφής σου είσαι εγγεγραμμένος ως φιλοξενούμενος φοιτητής σε Α.Ε.Ι. της ημεδαπής, οι οποίοι προέρχονται από ομοταγή Ιδρύματα της αλλοδαπής στο πλαίσιο εκπαιδευτικών ή ερευνητικών προγραμμάτων συνεργασίας, όπως ορίζονται στο άρθρο 36 παράγραφος 2 (α) και (β) του ν. 4009/2011 (Α 195) - (ERASMUS) και δικαιούσαι την δωρεάν σίτιση.",
                "According to your registration information you are not registered as a guest student at A.E.I. of the country, who come from similar Institutions abroad in the context of educational or research cooperation programs - (ERASMUS) and you should choose another category.": "Σύμφωνα με τα στοιχεία εγγραφής σου δεν είσαι εγγεγραμμένος ως φιλοξενούμενος φοιτητής σε Α.Ε.Ι. της ημεδαπής, οι οποίοι προέρχονται από ομοταγή Ιδρύματα της αλλοδαπής στο πλαίσιο εκπαιδευτικών ή ερευνητικών προγραμμάτων συνεργασίας, όπως ορίζονται στο άρθρο 36 παράγραφος 2 (α) και (β) του ν. 4009/2011 (Α 195) - (ERASMUS)."
            }
        }
    },
    "components": [
        {
            "title": "Prerequisites",
            "collapsible": false,
            "key": "diningPrerequisites",
            "type": "panel",
            "label": "Prerequisites",
            "hideLabel": true,
            "input": false,
            "customClass": "dining-panel-wrapper",
            "components": [
                {
                    "label": "HTML",
                    "attrs": [
                        {
                            "attr": "",
                            "value": ""
                        }
                    ],
                    "content": "{{ instance.t('According to your registration information you are registered as a guest student at A.E.I. of the country, who come from similar Institutions abroad in the context of educational or research cooperation programs - (ERASMUS) and you are entitled to free dining.') }}",
                    "refreshOnChange": false,
                    "key": "html",
                    "type": "htmlelement",
                    "input": false,
                    "tableView": false,
                    "customConditional": "show = !!(data.mobilityProgramStudent === true);"
                },
                {
                    "label": "HTML",
                    "attrs": [
                        {
                            "attr": "",
                            "value": ""
                        }
                    ],
                    "content": "{{ instance.t('According to your registration information you are not registered as a guest student at A.E.I. of the country, who come from similar Institutions abroad in the context of educational or research cooperation programs - (ERASMUS) and you should choose another category.') }}",
                    "refreshOnChange": false,
                    "key": "html",
                    "type": "htmlelement",
                    "input": false,
                    "tableView": false,
                    "customConditional": "show = !!(data.mobilityProgramStudent === false);"
                }
            ]
        }
    ]
}